!@#$%
!@#$%^
!@#$%^&
!@#$%^&*
@#$%^&
#
<invalid>
<unknown>
0
00
000
0000
00000
000000
0000000
00000000
0007
007
007007
01
010203
012
0123
01234
012345
0123456
01234567
012345678
0123456789
0147
0258
0369
0741
0852
08520
0963
098765
0987654321
1
101010
102030
1022
10sne1
1111
11111
111111
11111111
112233
11235813
12
1212
121212
1213
1214
1225
123
123123
123123123
123321
1234
12345
123456
1234567
12345678
123456789
1234567890
12345678910
123456a
1234qwer
12355
123654
123789
123abc
123go
123qwe
1313
131313
1316
1332
13579
1412
141414
1430
147258
147258369
147852
147852369
151515
159
159357
159753
1701d
171717
1818
181818
1900
1901
1902
1903
1904
1905
1906
1907
1908
1909
1910
1911
1912
1913
1914
1915
1916
1917
1918
1919
1920
1921
1922
1923
1924
1925
1926
1927
1928
1929
1930
1931
1932
1933
1934
1935
1936
1937
1938
1939
1940
1941
1942
1943
1944
1945
1946
1947
1948
1949
1950
1951
1952
1953
1954
1955
1956
1957
1958
1959
1960
1961
1962
1963
1964
1965
1966
1967
1968
1969
1970
1971
1972
1973
1974
1975
1976
1977
1978
1979
1980
1981
1982
1983
1984
1985
1986
1987
1988
1989
1990
1991
1992
1993
1994
1995
1996
1997
1998
1999
1a2b3c
1chris
1kitty
1q2w3e
1q2w3e4r
1qaz2wsx
1qw23e
2000
2001
2002
2003
2004
2005
2006
2007
2008
2009
2010
2011
2012
2013
2014
2015
2020
202020
2112
21122112
212121
22
2200
2222
222222
2252
232323
242424
246810
252525
2580
2kids
3010
3112
3141
333
333333
3533
357
369
3bears
4055
4444
444444
456123
456789
4788
4854
4runner
5050
50cent
5201314
5252
54321
5555
55555
555555
5683
57chevy
6262
6301
654321
666666
6969
696969
7410
741852
741852963
753
777
7777
777777
7777777
789456
789456123
7dwarfs
8520
8675309
87654321
888888
88888888
90210
911
951
9630
987654
987654321
999999
99999999
999999999
a
a12345
a123456
a1b2c3
a1b2c3d4
aa
aaa
aaaa
aaaaaa
aaliyah
aardvark
aaron
Aarón
abacab
abbott
abby
abc
abc123
abcd
abcd123
abcd1234
abcde
Abcdef
abcdefg
abigail
abracadabra
abracadaver
absolut
academia
academic
access
accord
account
ace
acropolis
action
active
acura
ada
adam
adi
adidas
admin
admin1
administrador
administrator
adobe1
adobe123
adrian
Adrián
adriana
Adriana
adrianna
adrock
aerobics
africa
agent
aguascalientes
Aguascalientes
Agustín
Agustina
airborne
airplane
airwolf
aki123
alacran
alacrán
Alan
alaska
albany
albatross
albert
alberto
alejandra
Alejandra
Alejandría
Alejandro
Alemania
alex
Alex
alex1
alexander
Alexander
alexandr
alexandra
Alexis
alf
alfaro
Alfonso
alfred
alfredo
algebra
ali
alias
aliases
alice
alice1
alicia
Alicia
alien
aliens
alina
aline
alisa
alison
allegro
allen
allison
allo
allstate
aloha
Alonso
Alpes
alpha
alpha1
alphabet
alpine
altamira
althea
altima
altima1
Álvaro
alyssa
ama
amadeus
amanda
Amanda
amanda1
amante
amarillo
amazing
Amazonia
amber
amelia
amelie
america
América
amiga
amigas
amigo
amigos
amistad
Amón
amorcito
amores
amorphous
amour
amy
Ana
anaconda
analog
anamaria
Ana María
anaranjado
anchor
anders
anderson
Andorra
andre
andre1
andrea
andrea1
andreea
andrei
andres
Andrés
andrew
andrew!
andrew1
andromache
andromeda
andy
angel
Angel
Ángel
angel1
angela
angeles
angelica
angelina
angelito
angelo
angels
angerine
angie
angie1
angus
animal
Animals
anita
ann
anna
anne
anneli
annette
annie
ansina
answer
antares
antena
anthony
anthony1
anthropogenic
Antillas
Antonella
Antonia
Antonio
anvils
anything
apache
apollo
apollo13
apple
apple1
apple2
applepie
apples
april
aptiva
aqua
aquarius
Aquiles
Arabia
Araceli
aragorn
archie
Argel
aria
ariadne
ariana
ariane
ariel
Aries
arizona
arlene
armando
arnold
Arrás
arrow
arsenal
artemis
arthur
artist
Arturo
asd
asdf
asdf;lkj
asdf1234
asdfasdf
asdfg
asdfgh
asdfghjk
asdfghjkl
asdfjkl
asdfjkl;
ashlee
ashley
ashley1
ashraf
ashton
Asia
asm
asno
aspen
ass
asshole
assmunch
asterix
Asturias
athena
atmosphere
attila
august
austin
Australia
Austria
autumn
avalon
avatar
avenger
avenir
awesome
Axel
ayelet
aylmer
azerty
aztecs
azul
azure
Babel
babes
baby
babyblue
babyboo
babyboy
babydoll
babyface
babygirl
babygirl1
babygurl
babyko
babylon5
babylove
bacchus
bach
backup
badass
badboy
badger
badgirl
bailey
Baja California
Baja California Sur
ballena
baller
bambam
bambi
bamboo
banana
bananas
bandit
banks
baraka
barbara
barber
barbie
Barcelona
baritone
barn
barney
barney1
barnyard
barrett
barry
bart
bartman
baseball
basf
basic
basil
basket
basketball
bass
bassoon
Bastard
batch
batista
batman
batman1
Bautista
bball
beach
beaches
beagle
beaner
beanie
beans
bear
bears
beast
beasty
beater
beatles
beatrice
beatriz
beautiful
beauty
beaver
beavis
beavis1
bebe
bebita
becca
beckham
becky
beer
beethoven
Bélgica
belgium
belize
bella
belle
belmont
beloved
ben
Benedicto
benfica
Benítez
benjamin
Benjamín
benji
benny
benoit
benson
benz
beowulf
berkeley
berlin
berliner
bernard
Bernarda
bernardo
bernie
berry
bertha
beryl
best
bestfriend
bestfriends
beta
betacam
beth
betsie
betsy
betty
bettyboop
beverly
beyonce
bharat
bhebhe
bianca
bibora
bicameral
bichon
Bierzo
bigal
bigben
bigbird
bigboss
bigdog
biggles
bigmac
bigman
bigred
biker
Bilbao
bilbo
bill
billabong
billgates
bills
billy
billy1
bimmer
bingo
binky
biochem
biology
bird
bird33
birdie
birdy
birthday
biscuit
bishop
Bismillah
bitch
bitch1
biteme
bitter
biz
blabla
black
blackjack
blah
blahblah
blanche
blanco
blazer
blessed
blessing
blinds
blink182
bliss
blitz
blizzard
blonde
blondie
blood
blowfish
blowjob
blowme
blue
bluebird
blueeyes
bluefish
bluejean
blues
bluesky
bmw
Boadilla
boat
bob
bobby
bobcat
bogart
bogey
bogus
bombay
Bond007
bonita
bonjour
bonnie
Bonzo
boobie
Booboo
booger
boogie
boomer
booster
boots
bootsie
boris
bosco
Bósforo
boss
boston
boulder
bourbon
bowwow
boxer
boxers
bozo
bradley
brain
branch
brandi
brandon
brandon1
brandy
Brasil
braves
brazil
brenda
brent
brewster
brian
brianna
bridge
bridges
bridget
bright
britain
britney
brittany
broadway
broken
broker
bronco
bronte
brooke
brooklyn
brother
bruce
bruno
Bruno
Bruselas
brutus
bryan
bsd
bubba
bubba1
bubble
bubblegum
bubbles
bubbles1
buck
bucks
buddha
buddy
buddy1
budgie
buffalo
buffett
buffy
bugs
bugsy
bull
bulldog
bullet
bulls
bullshit
bumbling
bunny
burgess
burns
burro
Burro
burton
business
buster
butch
butler
butter
buttercup
butterfly
butterfly1
butthead
button
buttons
buzz
byron
byteme
c00per
cable
cactus
cad
caesar
caiman
Caín
caitlin
Calahorra
Calatrava
Caleb
calendar
calgary
california
calvin
calvin1
camaro
camay
Cambridge
camel
camera
cameron
camila
camille
Camilo
campanile
campbell
campeche
Campeche
camping
canada
Canadá
cancer
candi
candy
canela
cannon
cannondale
canon
cantik
cantor
capricorn
captain
car
carbon
Cardenal
cardinal
carebear
caren
Caribe
Cariñena
carl
carla
carlitos
carlos
Carlos
Carlota
carmen
Carmen
carnage
carol
carol1
carole
carolina
caroline
carolyn
carrie
carrot
carson
carter
cascabel
cascade
cascades
casey
casper
cassandra
cassie
castle
cat
Catalina
catalog
catch22
catdog
catfish
catherine
cathy
catnip
cats
catwoman
cayuga
cccccc
cecile
cecilia
cecily
Ceilán
celeste
celica
celine
celtic
Celtics
celular
cement
center
cerulean
cesar
cessna
chacha
chad
chafa
chainsaw
challenge
chameleon
champion
Champs
Chan
chance
chandler
chanel
chang
change
changeit
changeme
chango
chantal
chaos
chapman
charger
charity
charles
charlie
charlie1
charlotte
charmed
charming
charon
chat
chavo
cheche
cheerleader
cheese
chelsea
chelsea1
chem
chemistry
cherry
cheryl
chess
chester
chester1
chetumal
Chetumal
chevy
cheyenne
chiapas
Chiapas
chiara
chicago
chichi
chicken
chico
chido
chiefs
chihuahua
Chihuahua
china
chinacat
chinook
chip
chiquita
chivas
chloe
chocolat
chocolate
chouette
chris
chris1
chris123
chrisbrown
christ
christ1
christia
christian
christin
christina
christine
christmas
christoph
christopher
Christopher
christy
chronos
chubby
chuck
church
Cibeles
cicero
Cid
cigar
cinder
cinderella
cindy
cindy1
cinema
circuit
cirque
cirrus
Ciudad de México
Ciudad Victoria
civic
civil
claire
clancy
clapton
clark
clarkson
class
classic
classroom
claude
claudel
claudia
cleo
cliff
clipper
clock
cloclo
clueless
cluster
clusters
coahuila
Coahuila
cobain
cobra
cocacola
coco
cocodrilo
Cocodrilo
code
cody
coffee
coke
colette
colima
Colima
colleen
college
collins
colombia
color
colorado
colors
colt45
coltrane
columbia
comet
commander
commrades
compaq
Compostela
compton
computadora
computer
comrade
comrades
Concepción
concept
concorde
condo
condom
confused
Congo
connect
connie
connor
conrad
console
Constantino
Constantinopla
content
control
cook
cookie
cookie1
cookies
cooking
cool
coolbean
coolness
cooper
cooter
copper
cora
corazon
cordelia
Córdoba
Corinto
corky
cornelius
cornflake
corona
corrado
correcaminos
Correcaminos
Coruña
corvette
corwin
cosmo
cosmos
cougar
cougars
Coulomb
country
courier
courtney
couscous
cowboy
cowboys
cows
coyote
cpu
CPU
crack1
cracker
craig
crawford
crazy
create
creation
creative
creosote
crescent
Creta
cretin
cricket
criminal
cristian
cristina
cristo
Cristóbal
cross
crow
crowley
cruise
crusader
Cruz
crystal
cshrc
cthulhu
cuda
cuddles
cuernavaca
Cuernavaca
cuervo
culiacán
Culiacán
cunningham
cunt
cupcake
current
curtis
cuteako
cuteme
cutie
cutiepie
cutlass
cyan
cyber
cyclone
cynthia
cyrano
daddy
daddy1
daddysgirl
daedalus
daemon
dagger
dagger1
daily
Daimiel
daisie
daisy
dakota
dale
dallas
damian
Damián
dammit
dan
dana
dance
dancer
dancing
Daniel
daniel1
daniela
danielle
danny
Dante
daphne
dapper
dark1
darkangel
Darkman
darkness
darkstar
darling
darren
darryl
darwin
dasha
data
database
dave
David
david1
davids
dawn
daytek
dead
deadhead
dean
death
deb
debbie
deborah
december
decker
deedee
deeznuts
default
defoe
delano
delete
delfin
delfín
Delia
deliver
delta
deluge
demo
demon
denali
denis
denise
dennis
denny
depeche
derek
desert
design
desiree
deskjet
desperate
destiny
detroit
deutsch
develop
device
devil
devine
devon
dexter
df
DF
dharma
diablo
dial
diamond
diamonds
diana
Diana
diane
dianne
Díaz
dickens
dickhead
diego
Diego
Diego Alejandro
diesel
diet
dieter
digger
digital
dilbert
dillweed
dinamo
dios
dipper
director
dirk
disc
disco
discovery
disk
disney
display
Distrito Federal
dixie
dixon
doc
doctor
dodger
dodgers
dog
dogbert
doggy
doitnow
dollar
dollars
dolly
Dolores
dolphin
dolphins
dominic
dominique
domino
don
donald
donkey
donna
dontknow
doogie
dookie
doom
doom2
doors
dork
dorothy
dos
doudou
doug
dougie
douglas
downtown
draft
Dragon
dragon1
dragonfly
dreamer
dreams
driver
drought
drowssap
duck
duckie
dude
dudley
duke
dulce
dumbass
duncan
dundee
durango
Durango
dustin
dusty
dutch
dutchess
dwight
dylan
Dylan
e
eager
eagle
eagle1
eagles
earth
easier
easter
eastern
easy
eatme
eclipse
eddie
edges
edinburgh
edith
edmund
Eduardo
edward
edwin
edwina
eeyore
effie
egghead
eiderdown
eieio
eight
eileen
einstein
elaine
elanor
electric
elefante
Elefante
element
elephant
Elías
elijah
elina1
elissa
elizabeth
Elizabeth
ella
ellen
elliot
elsie
elvis
email
e-mail
emerald
Emilia
Emiliano
Emilio
emily
eminem
emmanuel
Emmanuel
emmitt
empire
enemy
energy
engage
engine
engineer
england
enigma
enrique
enter
enterprise
entropy
enzyme
erenity
eric
eric1
erica
erika
erin
ernie1
ersatz
Escorpio
escorpion
escorpión
escort
escort1
españa
España
esposa
esposo
establish
estate
Esteban
estelle
Esther
estrella
estrellita
eternity
Etiopía
etoile
euclid
Eufrasia
eugene
Eugenia
Eugenio
Eulalia
Europa
europe
Eusebio
Eustaquio
evelyn
excalibur
excel
explore
explorer
export
express
extension
Ezequiel
faculty
Facundo
fairview
fairway
faith
falcon
familia
family
family1
farmer
farout
farside
fashion
fatboy
fatima
faust
fearless
february
feedback
felicia
felipe
Felipe
felix
Félix
femenino
fender
fenris
ferguson
fermat
fernanda
Fernández
fernando
Fernando
Feroe
ferrari
ferret
ferris
fiction
fidel
fidelity
field
Figaro
Filadelfia
file
Filomena
finance
finite
fiona
fire
fireball
firebird
fireman
firenze
first
fish
fish1
Fisher
fishers
fishes
fishhead
fishie
Fishing
flakes
flamingo
flanders
Flandes
flash
fletch
fletcher
fleurs
flight
flip
flipper
float
Florencia
flores
Flores
florida
florida1
flower
flowerpot
flowers
floyd
fluffy
flute
fly
flyboy
flyer
foobar
fool
foolproof
football
football1
ford
foresight
forest
forever
format
forsythe
Fortune
forum
forward
foster
fountain
fourier
fox
foxtrot
fozzie
france
francesco
Francia
francine
francis
Francisca
francisco
Francisco
Francisco Javier
Franco
francois
frank
franka
frankie
franklin
freak1
fred
freddie
Freddy
frederic
free
freebird
freedom
freeman
french
french1
Friday
friend
friends
friendship
friendster
frighten
frisco
Frisia
fritz
frodo
frog
froggie
froggies
froggy
frogs
Front242
frontier
fubar
fucker
fuckface
fuckme
fuckoff
fucku
fuckyou
fuckyou1
fuckyou2
fugazi
fun
function
fungible
funguy
funtime
future
fuzz
gabby
gabriel
Gabriel
gabriela
Gabriela
gabriell
gaby
Gael
gaelic
galaxy
Galeno
Gales
galileo
gallina
Gallina
gallo
gambit
gambler
games
gammaphi
ganda
gandako
gandalf
gangsta
gangster
Gante
garcia
Garcia
García
garden
gardner
garfield
garfunkel
gargoyle
garlic
garnet
garth
gary
Garza
gasman
gaston
gates
gateway
gateway2
gatita
gatito
gato
Gato
gator
gator1
gatt
gauss
gemini
general
genesis
genius
Génova
george
george1
georgia
gerald
gerard
Gerardo
german
Germán
germany
germany1
Gerona
Geronimo
gertrude
getout
gfhjkm
ggeorge
ghbdtn
ghost
giants
gibbons
gibson
gigi
gilbert
gilgamesh
gilles
gina
ginger
giselle
gizmo
glacier
glenn
glider1
glitter
global
gloria
Gloria
gmoney
gnu
go
goat
goaway
goblin
goblue
gocougs
god
godiva
Godoy
godzilla
goethe
gofish
goforit
gold
Golden
goldfish
golf
golfer
gollum
Gómez
gone
Gonzalez
González
Gonzalo
goober
good
goodluck
good-luck
goofy
google
goose
gopher
gordon
gorgeous
gorges
gosling
gouge
grace
gracie
graham
grahm
gramps
grandma
grant
graphic
grateful
gravis
gray
greed
green
greenday
greg
greg1
gregory
gremlin
greta
gretchen
Gretel
gretzky
Grial
gringo
Griñón
gris
grizzly
groovy
group
grover
grumpy
gryphon
guadalajara
Guadalajara
guanajuato
Guanajuato
gucci
Guernesey
guerrero
Guerrero
guess
guest
guey
guido
Guillermo
guinness
guitar
guitar1
gumby
gumption
gundam
gunner
guntis
Gustavo
h2opolo
hack
hacker
haggis
haha
hahaha
hailey
hal
hal9000
hallo
halloween
hallowell
hamid
hamilton
hamlet
hammer
handily
hank
hanna
hannah
hannah1
hansolo
hanson
happening
happy
happy1
happy123
happyday
hardcore
Harley
harley1
harmony
haro
harold
harriet
harris
harrison
harry
harrypotter
harvard
harvey
hawaii
hawk
hawkeye
hawkeye1
hayden
hazel
health
health1
heart
hearts
heather
heather1
heather2
heaven
hebrides
hector
hedgehog
heidi
heikki
heinlein
helen
helena
helene
hell
hello
hello1
hello123
hello8
hellohello
hellokitty
help
help123
helper
helpme
hembra
Hendrix
henry
herbert
herman
hermes
hermosa
hermosillo
Hermosillo
hernandez
Hernandez
Hernández
Hershey
herzog
heythere
hgTYDOMium
Híadas
Híades
hiawatha
hibernia
hidalgo
Hidalgo
hidden
highland
hilbert
hilda
hillary
Hinojosa
hiphop
histoire
history
hithere
hitler
hobbes
hobbit
hockey
hola
holiday
holly
hollywood
hombre
home
homebrew
Homer
homerj
homework
honda
honda1
honey
honeyko
hongkong
hoops
hoosier
hootie
hope
horizon
hornet
horse
horses
horus
hosehead
hotdog
hotmail
hotrod
hotstuff
hottie
hottie1
house
houston
howard
huang
hudson
huey
hugh
hugo
Hugo
hummer
hunter
huskies
hutchins
hydrogen
i
Ian
ib6ub9
ibanez
ibm
icecream
iceman
idiot
idontknow
if6was9
iforget
Ignacio
iguana
ihateyou
Iker
ilmari
ilovegod
ilovehim
ilovejesus
iloveme
iloveu
iloveu2
iloveyou
iloveyou!
iloveyou1
iloveyou2
image
imagine
imbroglio
imissyou
impact
impala
imperial
include
indian
indiana
indigo
indonesia
info
informix
Inglaterra
ingres
ingress
ingrid
ingvar
inlove
inna
innocuous
insane
inside
insight
instructor
integra
integral
intern
internet
intrepid
inuyasha
iomega
ireland
irene
irina
iris
irish
irishman
irmeli
ironman
isaac
Isaac
isabel
Isabel
isabella
isabelle
isaiah
ISBN
Isidora
Isidoro
Isidro
Isidroness
isis
island
Islandia
Islandias
Ismael
israel
Italia
italy
iubire
Iván
iverson
izzy
j1l2t3
jack
jackass
jackie
jackie1
Jackson
jacob
Jacobo
jaguar
Jaime
jake
jakey
jalisco
Jalisco
jamaica
james
james1
jamesbond
jamie
jamjam
jan
jane
Janet
janice
janie
janine
january
japan
jared
jasmin
jasmine
jasmine1
jason
jason1
jasper
Javier
jayden
jayjay
jayson
jazmin
jazz
jean
jeanette
jeanne
jedi
jeepster
jefe
jeff
jeffrey
jeffrey1
jen
jenifer
jenni
jennie
jennifer
jenny
jenny1
jensen
jer
jeremiah
jeremy
Jericó
jerome
Jerónima
Jerónimo
Jerónimo/Gerónimo
jerry
Jersey
Jesé
jesse
jesse1
jessica
jessica1
jessie
jester
jesucristo
jesus
Jesús
jesus1
jesuschrist
Jesúses
jethro
jethrotull
jetta1
jewels
jill
jim
jimbo
jimbob
jimi
jimmy
jixian
jkl123
joanie
Joanna
joanne
Joaquín
Job
jody
joe
joel
joelle
joey
johan
johanna1
john
john316
johncena
johnny
johnson
jojo
joker
joker1
jonathan
jordan
Jordán
jordan1
jordan23
jordie
jorge
Jorge
Jose
José
José Antonio
josee
Josefa
Josefina
José Luis
joseph
josh
Joshua
joshua1
josie
Josselin
Josselyn
Josué
journey
joy
joyce
Juan
Juana
Juan Carlos
Juan David
Juan Diego
Juan Esteban
Juan Felipe
Juan Ignacio
Juan José
Juan Manuel
Juan Pablo
Juan Sebastián
jubilee
judas
Judit
judith
judy
juggle
juhani
jules
julia
julia2
julian
Julián
juliana
julie
julie1
julien
juliet
julius
jumanji
jumbo
jump
june
junebug
junior
juniper
jupiter
jussi
justdoit
justice
justice4
justin
justin1
justine
justme
kalamazoo
kali
kangaroo
karen
karen1
karie
karin
karina
karine
karla
karma
kat
kate
katerina
katherine
kathleen
kathrine
kathy
katie
katie1
katina
katrina
kayla
kcin
keeper
keepout
keith
keith1
keller
kelly
kelly1
kelsey
kendall
kennedy
kenneth
kenny
kerala
keri
kermit
kernel
kerri
kerrie
kerry
kerrya
ketchup
kevin
Kevin
kevin1
key
keyboard
khan
kidder
kids
Killer
kim
kimberly
king
kingdom
kingfish
kings
kirk
kirkland
kissa2
kisses
kissme
kitkat
kitten
kitty
kittycat
kiwi
kkkkkk
kleenex
knicks
knight
koala
koko
kombat
kramer
kris
krista
kristen
kristi
kristie
kristin
kristina
kristine
kristy
labtec
lacrosse
laddie
ladle
lady
ladybug
lakers
lalala
lambda
lamer
lamination
lana
lance
La Paz
lara
larkin
larry
larry1
laser
laserjet
lassie1
Laura
laurel
lauren
laurie
Lautaro
law
lawrence
lawson
lawyer
lazarus
leader
leaf
leah
leanne
lebesgue
leblanc
ledzep
lee
legal
legend
legolas
leland
lemon
leo
leon
león
León
leonard
leonardo
Leonardo
leroy
leslie
lestat
lester
Leticia
letmein
letter
letters
lewis
lexus1
Liberty
libra
library
life
light
lights
liliana
lilmama
lima
lincoln
linda
Lindsay
lindsey
link
linkinpark
lionel
lionking
lions
lipgloss
lisa
lisp
lissabon
little
liverpool
liz
lizard
lizzie
lizzy
Lladra
Lladras
lloyd
lobo
lock
lockout
logan
logger
logical
logos
lois
loislane
loki
lokita
lola
lolipop
lolita
lollipop
lollypop
london
Londres
lonely
lonestar
longer
longhorn
looking
looney
Lopez
López
loren
lorena
Lorenzo
lori
lorin
lorna
lorraine
lorrie
loser
lost
lotus
lou
louis
louise
love
love12
love123
lovebug
lovelove
lovely
lovely1
loveme
loveme1
lover
lover1
loverboy
lovers
loves
loveu
loveya
loveyou
loving
lucas
Lucas
Lucero
lucia
Luciano
lucifer
lucky
lucky1
lucky14
lucky7
lucy
Luis
Luisa
lulu
lupita
lynn
lynne
m
m1911a1
mac
macha
macho
macintosh
mack
macromedia
macross
madalina
maddie
maddog
Madeline
madison
madmax
madoka
madonna
Madrid
maganda
magenta
maggie
maggot
magic
magic1
magnum
mahal
mahalkita
mahalko
maiden
mail
mailer
mailman
maine
maint
Maite
major
majordomo
makeitso
malcolm
malcom
maldita
malibu
mallard
mamita
management
manager
manchester
manson
mantra
manuel
Manuel
manutd
mara
marathon
marc
marcel
marci
Marco Antonio
marcos
Marcos
marcus
marcy
Margaret
margarita
Margarita
maria
María
maria1
María Carmen
María de Jesús
María del Carmen
María de los Ángeles
María del Rosario
María Elena
María Guadalupe
mariah
mariah1
María Isabel
María Luisa
marian
mariana
María Pilar
María Teresa
marie
marie1
marielle
marietta
marilyn
marina
marine
mariner
marino
mario
mariposa
marisol
marissa
mark
mark1
market
markus
marlboro
marley
marlon
marni
mars
marshall
mart
Marte
martha
Martha
martin
Martín
martin1
Martina
martinez
Martinez
Martínez
marty
marvin
mary
maryjane
masculino
Master
master1
Mateo
math
Matías
matrix
matt
matthew
Matthew
matthew1
matti1
mattingly
maurice
mauricio
Mauricio
maverick
max
maxime
Maximiliano
Máximo
maxine
maxmax
maxwell
mayday
mazda1
me
meagan
meatloaf
Meca
mech
mechanic
media
medical
megan
meggie
meister
Méjico
melanie
melina
Melisa
melissa
mellon
melody
melvin
mememe
memory
memphis
mensuck
meow
mercedes
mercer
mercury
merde
Mérida
merlin
merlot
mermaid
merrill
Mesta
metal
metallic
metallica
mets
mexicali
Mexicali
mexico
méxico
México
MÉXICO
mgr
mhine
miami
miamor
michael
michael1
michal
micheal
michel
Michel1
michele
michelle
michelle1
michigan
Michoacán
michou
mickel
mickey
mickey1
micro
microsoft
midnight
midori
midvale
midway
mierda
Miguel
Miguel Ángel
mikael
mike
mike1
mikey
miki
milagros
Milán
milano
miles
millenium
miller
millie
million
mimi
mindy
mine
minimum
minnie
minou
minsky
miracle
mirage
miranda
miriam
mirror
misha
mishka
mission
missy
misty
mit
mitch
mitchell
mmm
mmmmmm
mmouse
mobile
mobydick
modem
mogul
moguls
mojo
molly
molly1
molson
mom
mommy
mommy1
monday
monet
Money
money1
monica
Mónica
monique
monitor
monkey
monkey1
monkey12
monkeys
mono
Mono
monopoly
monroe
Monster
montana
montana3
monterrey
Monterrey
Montreal
montrose
monty
moocow
mookie
moomoo
moon
moonbeam
moore
moose
mopar
morado
morecats
morelia
Morelia
morelos
Morelos
Morfeo
morgan
morley
moroni
morpheus
morris
mortimer
mother
motor
motorola
mountain
mouse
mouse1
movies
mowgli
mozart
muffin
mujer
mulder
mulder1
munchkin
Muñoz
murphy
murray
muscle
music
musica
mustang
mustang1
mustdie
mutant
mybaby
mylife
mylove
myself
myspace
myspace1
naco
nadia
nadine
nagel
nancy
naomi
napoleon
naranja
naruto
nasa
nascar
nat
natalia
natalie
natasha
Nathalie
nathan
nation
national
nautica
nayarit
Nayarit
ncc1701
ncc1701d
ncc1701e
ne1410s
ne1469
ne14a69
nebraska
negro
neil
neko
nellie
nelson
nemesis
nenita
neon
nepenthe
neptune
nermal
nesbit
nesbitt
ness
nestle
net
neta
netware
network
neutrino
new
newaccount
newcourt
newlife
newpass
news
newton
newuser
newyork
newyork1
next
nexus6
nguyen
Nicaragua
nicarao
nicholas
nichole
nick
nicklaus
nicolas
Nicolás
nicole
nicole1
nigel
nightshade
nightwing
nike
niki
nikita
nikki
nimrod
nina
niners
ninja
nintendo
nirvana
nirvana1
nissan
nisse
nita
nite
nobody
Noé
nokia
nomore
none
none1
nopass
noreen
Noriko
normal
norman
norton
notebook
nothing
notta1
notused
nouveau
novell
november
novio
noway
noxious
nuclear
Nuevo León
nugget
number1
number9
numbers
Nuria
nurse
nursing
nutmeg
nutrition
nyquist
oatmeal
oaxaca
Oaxaca
obiwan
obsession
ocean
Oceanía
oceanography
ocelot
ocelote
October
office
ohshit
oicu812
olive
oliver
olivetti
olivia
olivier
ollie
olsen
omarion
omega
one
onelove
online
open
openup
opera
operator
Oporto
opus
oracle
orale
órale
orange
oranges
orca
orchid
oregon
oreo
orion
Orión
orlando
orville
orwell
oscar
osea
o sea
osiris
otter
OU812
outlaw
overkill
oxford
ozzy
paagal
Pablo
pacers
pachuca
Pachuca
pacific
packard
packer
packers
packrat
Paco
pad
painless
paint
painter
pakistan
Paladin
Palencia
paloma
pam
pamela
Panamá
pancake
Pancracio
panda
pandora
panget
pangit
panic
pantera
Pantera
panther
panthers
paola
papa
paper
papers
paradigm
Paraguay
paris
park
parker
parola
parrot
partner
pasaway
pascal
pass
passion
passw0rd
passwd
PASSWORD
password1
password2
pat
patches
patricia
Patricia
Patricio
patrick
patriots
patton
patty
paul
paula
Paulina
pauline
pavel
payton
peace
peach
Peaches
peanut
peanuts
pearl
pearljam
pebbles
pedo
Pedro
pedro1
peewee
peggy
pencil
penelope
penguin
penis
penny
Pentium
Peñaranda
people
peoria
Pepper
pepsi
percolate
percy
Perez
Pérez
perfect
performa
perro
Perro
perry
persimmon
person
persona
Perú
pete
peter
peter1
peterk
peterpan
petey
petunia
phantom
phialpha
phil
philip
philips
phillips
phish
phishy
phoenix
phoenix1
phone
photo
photoshop
phpbb
piano
piano1
pianoman
pianos
picard
picasso
pickle
picture
pictures
pierce
pierre
pigeon
Piglet
Pilar
pimpin
pineapple
pink
pinkfloyd
pinky
pioneer
pipeline
piper1
pirate
pisces
pizza
plane
planet
plato
Platón
play
playboy
player
players
playgirl
please
plover
plus
pluto
Plutón
plymouth
poetic
poetry
pogiako
poiuyt
pokemon
polar
polaris
pole
police
politics
pollito
polly
polo
Polonia
polynomial
pomme
pondering
pontiac
poohbear
pookey
pookie
pookie1
poop
poopoo
popcorn
pope
popeye
poppy
pork
porsche
porsche911
porter
portland
Portugal
poster
potter
power
ppp
praise
prayer
preciosa
precious
predator
prelude
premier
presto
preston
pretty
primus
prince
princesa
princesita
princess
princess1
princeton
print
printing
priv
private
privs
prof
professor
profile
program
prometheus
property
protect
protozoa
provider
Prusia
psalms
psycho
pub
public
Pucela
puddin
puebla
Puebla
pulsar
pumpkin
puneet
punkin
puppet
puppies
puppy
purple
purple1
pussy
pussy1
pussycat
pyramid
pyro
python
q1w2e3
q1w2e3r4
qazwsx
qerétaro
qqq111
quality
quebec
queen
queenie
quentin
quepedo
que pedo
Querétaro
quest
Quintana Roo
Quiroga
qwaszx
qwer
qwert
qwerty
qwerty1
qwerty12
qwertyui
qwertyuiop
Rabbit
rabbit1
racer
racerx
rachel
rachelle
rachmaninoff
racoon
radar
radio
rafael
Rafael
rafiki
raiders
rain
rainbow
raindrop
Raistlin
raleigh
ralph
ram
rambo
rambo1
Ramirez
Ramírez
Ramiro
Ramón
rancid
Random
randy
randy1
ranger
rangers
raptor
raquel
rascal
rasta1
rastafarian
ratio
raton
Raúl
raven
ravens
raymond
reagan
reality
really
rebecca
rebelde
red
red123
redcloud
reddog
redfish
redman
redrum
redskins
redsox
redwing
redwood
reed
reggae
reggie
regina
regional
reliant
remember
remote
rene
renee
renegade
reptile
republic
rescue
research
revolution
rex
reynolds
reznor
rhino
rhonda
ricardo
Ricardo
ricardo1
richard
richard1
richards
richmond
rick
ricky
riley
ripper
ripple
risc
rita
river
rje
roadrunner
rob
robbie
robby
robert
robert1
Roberto
roberts
robin
robinhood
robocop
robot
robotech
robotics
robyn
roche
rochelle
rochester
rock
rocket
rocket1
rockie
rocknroll
rockon
rocky
rocky1
rodent
rodeo
rodrigo
Rodrigo
Rodriguez
Rodríguez
roger
roger1
rogers
rojo
roland
rolex
Roma
roman
romano
Romero
rommel
ronald
ronaldo
roni
ronnie
rookie
root
rootbeer
rosa
Rosa
Rosa María
rose
rosebud
rosemary
roses
rosie
rosita
rossignol
rotimi
rouge
route66
roxana
roxy
roy
royal
ruben
Rubi
Rubí
ruby
rufus
rugby
rugger
Ruíz
rules
runner
running
rush
Rusia
russell
rusty
ruth
ruthie
ruthless
ryan
sabbath
sabina
sabrina
sadie
safety
safety1
saigon
sailing
sailor
saint
sakura
sal
Salamanca
salasana
sales
sally
salmon
saltillo
Saltillo
salut
Salvador
sam
samantha
samiam
sammie
sammy
sample123
sampson
samsam
samson
samsung
samuel
Samuel
Sanchez
Sánchez
sandi
sandra
sandy
sanjose
San Luis Potosí
santa
Santander
santiago
Santiago
Santino
santos
saphire
sapphire
sara
sarah
sarah1
sasha
saskia
sassy
sasuke
satori
saturday
saturn
saturn5
Saturno
savage
savannah
saved
saxon
sayang
scamper
scarecrow
scarface
scarlet
scarlett
scheme
schnapps
school
science
scooby
scoobydoo
scooter
scooter1
scorpio
scorpion
scotch
scotland
scott
scott1
scottie
scotty
scout
scouts
scrooge
scruffy
scuba
scuba1
sean
search
seattle
sebastian
Sebastián
secret
secret3
security
seeker
sensor
seoul
september
serena
serenity
sergei
sergey
sergio
Sergio
server
service
services
sesame
seven
seven7
sex
sexy
sexybitch
sexygirl
sexymama
sexyme
shadow
shadow1
shaggy
shakira
shalom
shanghai
shannon
shanny
shanti
shaolin
sharc
shark
sharks
sharon
shasta
shawn
shayne
shazam
sheba
sheena
sheffield
sheila
shelby
sheldon
shell
shelley
shelly
shelter
sherri
sherry
ship
shirley
shit
shithead
shiva
shivers
shoes
shogun
shopping
shorty
shotgun
shuttle
Sidekick
sidney
sierra
sigmachi
signal
signature
Silva
silver
silvia
Silvia
simba
simba1
simon
Simón
simone
simple
simpsons
simsim
sinaloa	
Sinaloa	
sinatra
singer
single
sirius
sister
skate
skater
skeeter
skibum
skidoo
skiing
skip
skipper
skipper1
skippy
skittles
skull
skunk
skydive
skyler
skyline
skywalker
slacker
slayer
sleepy
slick
slider
slideshow
slip
slipknot
smashing
smegma
smile
smile1
smiles
smiley
smiths
smitty
smoke
smokey
smooch
smother
smurfy
snake
snakes
snapper
snapple
snatch
snickers
sniper
snoop
snoopdog
snoopy
snow
snowball
snowflake
snowman
snowski
snuffy
soap
sober1
soccer
soccer1
socrates
Sofía
softball
soleil
solomon
somebody
something
sondra
sonia
sonic
sonics
sonny
sonora
Sonora
sony
sonya
sophia
sophie
sorcho
Sosa
sossina
sound
space
spain
spanky
sparkle
sparks
sparky
sparrow
sparrows
spartan
spazz
special
speedo
Speedy
spencer
sphynx
spider
spiderman
spike
spike1
spirit
spit
spitfire
spock
sponge
spongebob
spooky
spoon
sporting
sports
spot
spring
springer
sprite
sprocket
spunky
spurs
squash
squires
sss
ssssss
stacey
staci
stacie
stacy
stan
stanley
star
star69
starbuck
stargate
starlight
stars
start
starter
startrek
starwars
station
stealth
steaua
steel
steele
steelers
stella
steph
steph1
stephani
stephanie
stephen
stephi
Sterling
steve
steve1
steven
steven1
stevens
stewart
stimpy
sting
sting1
stingray
stinky
stivers
stocks
stone
storage
storm
stormy
stranger
strangle
strat
stratford
strato
strawberry
stretch
strong
stuart
stud
student
student2
studio
stumpy
stupid
stuttgart
subway
success
sucker
suckme
sue
sugar
sultan
summer
summit
sun
sunbird
sundance
sunday
sunfire
sunflower
sunny
sunny1
sunrise
sunset
Sunshine
sunshine1
super
superfly
superman
superstage
superstar
superuser
support
supported
supra
surf
surfer
surfing
susan
susan1
susana
susanna
susanne
susie
sutton
suzanne
suzie
suzuki
suzy
Sverige
swanson
swearer
sweden
sweet
sweet16
sweetheart
sweetie
sweetness
sweetpea
sweets
sweety
swim
swimmer
swimming
switzer
Swoosh
swordfish
sybil
sydney
sylvia
sylvie
symbol
symmetry
sys
sysadmin
system
system5
tab
tabasco
Tabasco
tabatha
tacobell
taffy
taiwan
talon
tamara
tamaulipas
Tamaulipas
tami
tamie
tammy
tamtam
tangerine
tango
tanner
tanya
tapani
tape
tapir
tara
targas
target
tarheel
tarragon
tarzan
tasha
tata
tatiana
tattoo
taurus
Taylor
tazdevil
tazmania
tbird
t-bone
teacher
teamo
tech
techno
teclado
teddy
teddy1
teddybear
teflon
teiubesc
tekiero
telecom
telefono
teléfono
telephone
television
televisión
temp
temporal
temptation
tennis
tepic
Tepic
tequiero
tequila
teresa
Teresa
terminal
terry
terry1
test
test1
test123
test2
test3
tester
testi
testing
testtest
Texas
thailand
thankyou
the
theatre
thebest
theboss
theend
thejudge
theking
thelorax
Theresa
Thiago
thisisit
thomas
thompson
thorne
thrasher
thumper
thunder
thunderbird
thursday
thx1138
tiempo
tiffany
tiger
tiger2
tigers
tigger
tigger1
tightend
tigre
Tigre
tika
tim
timber
time
timothy
tina
tinker
tinkerbell
tintin
tlaxcala
Tlaxcala
tnt
Tobías
toby
today
toggle
tokiohotel
tokyo
toluca
Toluca
tom
Tomás
tomato
tomcat
tommy
tony
Toñi
Toño
tool
tootball
tootsie
topcat
topgun
topher
topography
tornado
toronto
torres
tortoise
toshiba
total
toto1
tototo
toucan
toxic
toyota
traci
tracie
tracy
trails
training
transfer
transit
transport
trapper
trash
travel
travis
tre
treasure
trebor
tree
trees
trek
trevor
tricia
tricky
trident
trinity
trish
trisha
tristan
triton
trivial
trixie
trojan
trombone
trophy
trouble
trout
Troya
truck
trucker
truelove
truman
trumpet
trustno
trustno1
tty
tubas
tucker
tucson
tuesday
tula
Túnez
turbo
turbo2
Turquía
turtle
tuttle
Tuxtla Gutiérrez
tv
tweety
twilight
twinkle
twins
tyler
tyler1
Ucrania
ultimate
umesh
undead
undertaker
unhappy
unicorn
unique
united
unity
unix
unknown
upsilon
Urano
uranus
urchin
ursula
usa
user1
util
utility
utopia
Utrera
uucp
vacation
vader
val
Valdepeñas
valentin
valentina
valentine
Valentino
valeria
valerie
valhalla
valley
vampire
Vancouver
vanessa
vanilla
varon
vasant
vedder
velvet
Venecia
Venezuela
venice
venus
veracruz
Veracruz
verde
vermont
Vernon
veronica
Verónica
vertigo
vette
vibora
víbora
Víbora
Vicente
vicki
vicky
victor
víctor
Victor
Víctor
victor1
victoria
victory
vida
video
viking
vikram
village
villahermosa
Villahermosa
vincent
vincent1
violet
violeta
violin
viper
viper1
virago
virgil
virgin
virginia
visa
vision
visitor
visual
Vivar
Vizcaya
volcano
volley
volleyball
volvo
voodoo
vortex
voyager
waiting
walden
waldo
walker
walleye
wally
walter
wanker
warcraft
wargames
warlock
warner
warren
warrior
warriors
water
water1
Waterloo
watson
wayne
wayne1
weasel
webmaster
webster
wedge
weenie
weezer
welcome
wendi
wendy
wendy1
wesley
western
westlife
westside
wey
whale1
whatever
whatnot
wheels
whisky
whit
white
whiting
whitney
whocares
wholesale
whoville
wibble
wifi
wIfI
WiFi
wilbur
wildcat
will
william
william1
williams
williamsburg
willie
willow
willy
wilma
wilson
wind
window
windows
windsurf
winner
winnie
winniethepooh
winona
winston
winter
wisconsin
wisdom
wizard
wolf
wolf1
wolfgang
wolverine
wolves
wombat
wombat1
wonder
Woodrow
woodwind
woody
woofwoof
word
wordpass
work
world
wormwood
wrangler
wright
www
wyoming
x
xalapa
Xalapa
xanadu
xanth
xavier
xbox360
xcountry
xfer
xfiles
x-files
x-men
xmodem
xxx
xxx123
xxxx
xxxxxx
xxxxxxxx
xyz
xyz123
xyzzy
y
yaco
yamaha
yang
yankee
yankees
yellow
yellowstone
yoda
yogibear
yolanda
Yolanda
yomama
Yoselin
yosemite
young
yourmom
Yucatán
yukon
yvette
yvonne
zacatecas
Zacatecas
zacefron
zachary
zack
Zafra
Zamora
zap
zapata
zaphod
Zaragoza
zebra
zebras
Zelanda
zenith
zephyr
zeppelin
zepplin
zeus
zhongguo
ziggy
zigzag
zimmerman
zmodem
zoltan
zombie
zoomer
zorro
zxc
zxc123
zxcvb
zxcvbn
Zxcvbnm
zzz
ZZZ
zZzZ
ZzZz
zZzZzZ
ZzZzZz
